%YAML 1.1
%TAG !u! tag:unity3d.com,2011:
--- !u!114 &11400000
MonoBehaviour:
  m_ObjectHideFlags: 0
  m_CorrespondingSourceObject: {fileID: 0}
  m_PrefabInstance: {fileID: 0}
  m_PrefabAsset: {fileID: 0}
  m_GameObject: {fileID: 0}
  m_Enabled: 1
  m_EditorHideFlags: 0
  m_Script: {fileID: -1893448595, guid: a040fb66244a7f54289914d98ea4ef7d, type: 3}
  m_Name: CardManager
  m_EditorClassIdentifier: 
  _data:
    _json: '{"graph":{"variables":{"collection":{"$content":[],"$version":"A"},"$version":"A"},"controlInputDefinitions":[],"controlOutputDefinitions":[],"valueInputDefinitions":[],"valueOutputDefinitions":[],"title":null,"summary":null,"pan":{"x":-396.3553,"y":520.8239},"zoom":0.45,"elements":[{"coroutine":false,"defaultValues":{},"position":{"x":-623.0,"y":-285.0},"guid":"d42106cd-e444-4c19-b863-ed509432b689","$version":"A","$type":"Bolt.Start"},{"member":{"name":"dataPath","parameterTypes":null,"targetType":"UnityEngine.Application","targetTypeName":"UnityEngine.Application","$version":"A"},"defaultValues":{},"position":{"x":-574.0,"y":-117.0},"guid":"ab49935f-f58c-4302-948e-814ad25aebbb","$version":"A","$type":"Bolt.GetMember","$id":"11"},{"coroutine":false,"defaultValues":{},"position":{"x":-178.0,"y":208.0},"guid":"3b56824d-e050-457a-ad7a-80447cb708b6","$version":"A","$type":"Bolt.Update"},{"type":"System.Collections.Generic.List`1[[System.Runtime.InteropServices.ClassInterfaceType,
      mscorlib, Version=4.0.0.0, Culture=neutral, PublicKeyToken=b77a5c561934e089]]","value":{"$content":["None"],"$type":"System.Collections.Generic.List`1[[System.Runtime.InteropServices.ClassInterfaceType,
      mscorlib, Version=4.0.0.0, Culture=neutral, PublicKeyToken=b77a5c561934e089]]"},"defaultValues":{},"position":{"x":559.0,"y":62.0},"guid":"f55015d2-0e1d-4e0d-b917-346b43d02f72","$version":"A","$type":"Bolt.Literal"},{"kind":"Object","defaultValues":{"name":{"$content":"jSonString","$type":"System.String"},"object":null},"position":{"x":107.0,"y":-4.0},"guid":"b5bdeb9c-b078-465b-b69f-a310077a7895","$version":"A","$type":"Bolt.SetVariable"},{"defaultValues":{},"position":{"x":-368.0,"y":-125.0},"guid":"903bbb2f-3ef0-4345-85ad-ba0f65b4105e","$version":"A","$type":"Bolt.GenericAdd","$id":"21"},{"type":"System.String","value":{"$content":"/EnumCard.json","$type":"System.String"},"defaultValues":{},"position":{"x":-546.0,"y":-9.0},"guid":"94bd6e29-aa31-4cee-b60a-b00da2750038","$version":"A","$type":"Bolt.Literal","$id":"23"},{"kind":"Object","defaultValues":{"name":{"$content":"path","$type":"System.String"},"object":null},"position":{"x":-226.0,"y":-235.0},"guid":"de3e5418-406a-4192-8224-848dbacba3a3","$version":"A","$type":"Bolt.SetVariable","$id":"25"},{"chainable":false,"member":{"name":"LoadAll","parameterTypes":["System.String"],"targetType":"UnityEngine.Resources","targetTypeName":"UnityEngine.Resources","$version":"A"},"defaultValues":{"%path":{"$content":"","$type":"System.String"}},"position":{"x":55.0,"y":-231.0},"guid":"d3ef642f-920d-4d13-8f7e-226dd4effc9a","$version":"A","$type":"Bolt.InvokeMember","$id":"27"},{"kind":"Object","defaultValues":{"name":{"$content":"JsonList","$type":"System.String"},"object":null},"position":{"x":373.0,"y":-260.0},"guid":"c7eb1bb1-34e7-4327-bc7a-ffc5a642bdaf","$version":"A","$type":"Bolt.SetVariable","$id":"30"},{"dictionary":false,"defaultValues":{},"position":{"x":57.0,"y":187.0},"guid":"4869d112-f032-4736-ac73-231bdffba9ce","$version":"A","$type":"Bolt.ForEach","$id":"32"},{"chainable":false,"member":{"name":"Log","parameterTypes":["System.Object"],"targetType":"UnityEngine.Debug","targetTypeName":"UnityEngine.Debug","$version":"A"},"defaultValues":{},"position":{"x":316.0,"y":265.0},"guid":"53477256-a74e-47b9-8fd9-1cfe99a4be6f","$version":"A","$type":"Bolt.InvokeMember","$id":"34"},{"specifyFallback":false,"kind":"Object","defaultValues":{"name":{"$content":"JsonList","$type":"System.String"},"object":null},"position":{"x":-156.0,"y":347.0},"guid":"ca0d2e95-ed5e-430a-9dc6-a4fb780eea84","$version":"A","$type":"Bolt.GetVariable","$id":"37"},{"sourceUnit":{"$ref":"25"},"sourceKey":"assigned","destinationUnit":{"$ref":"27"},"destinationKey":"enter","guid":"17ac364e-5490-488e-b034-8ceff3f6a2a6","$type":"Bolt.ControlConnection"},{"sourceUnit":{"$ref":"27"},"sourceKey":"exit","destinationUnit":{"$ref":"30"},"destinationKey":"assign","guid":"a3dc794d-23b3-466f-b46b-7fc39055120a","$type":"Bolt.ControlConnection"},{"sourceUnit":{"$ref":"32"},"sourceKey":"body","destinationUnit":{"$ref":"34"},"destinationKey":"enter","guid":"334c43bb-16fa-466c-a27a-818892333684","$type":"Bolt.ControlConnection"},{"sourceUnit":{"$ref":"25"},"sourceKey":"output","destinationUnit":{"$ref":"27"},"destinationKey":"%path","guid":"bb2ad843-4bf8-48bd-ae26-f95ba9e0beb2","$type":"Bolt.ValueConnection"},{"sourceUnit":{"$ref":"11"},"sourceKey":"value","destinationUnit":{"$ref":"21"},"destinationKey":"a","guid":"7817a217-23d8-425c-97ca-3c36fb9c941b","$type":"Bolt.ValueConnection"},{"sourceUnit":{"$ref":"23"},"sourceKey":"output","destinationUnit":{"$ref":"21"},"destinationKey":"b","guid":"92ffd593-23a2-46db-9b24-db9e073041a6","$type":"Bolt.ValueConnection"},{"sourceUnit":{"$ref":"21"},"sourceKey":"sum","destinationUnit":{"$ref":"25"},"destinationKey":"input","guid":"0057e776-adcf-4783-9e27-8ae432503232","$type":"Bolt.ValueConnection"},{"sourceUnit":{"$ref":"27"},"sourceKey":"result","destinationUnit":{"$ref":"30"},"destinationKey":"input","guid":"ca1f8750-c3c7-463b-acc2-b09a48fbed3f","$type":"Bolt.ValueConnection"},{"sourceUnit":{"$ref":"32"},"sourceKey":"currentIndex","destinationUnit":{"$ref":"34"},"destinationKey":"%message","guid":"6ca6ca6e-8c67-44d1-b556-0425f897c1d7","$type":"Bolt.ValueConnection"},{"sourceUnit":{"$ref":"37"},"sourceKey":"value","destinationUnit":{"$ref":"32"},"destinationKey":"collection","guid":"bec30efa-4502-462a-aded-b96be3ee5f8e","$type":"Bolt.ValueConnection"}],"$version":"A"}}'
    _objectReferences: []
