%YAML 1.1
%TAG !u! tag:unity3d.com,2011:
--- !u!114 &11400000
MonoBehaviour:
  m_ObjectHideFlags: 0
  m_CorrespondingSourceObject: {fileID: 0}
  m_PrefabInstance: {fileID: 0}
  m_PrefabAsset: {fileID: 0}
  m_GameObject: {fileID: 0}
  m_Enabled: 1
  m_EditorHideFlags: 0
  m_Script: {fileID: 11500000, guid: 5a89dbbbf6f7dcc4090e6c047fe6a197, type: 3}
  m_Name: Block
  m_EditorClassIdentifier: 
  name: Block
  desciption: 
  typetext: 
  artwork: {fileID: 0}
  range: 0
  damages: 0
  startup: 0
  hitstun: 0
  blockhit: 0
